{
    "name": "Daily.GoogleSheet2Unity.Runtime",
    "rootNamespace": "",
    "references": [],
    "includePlatforms": [],
    "excludePlatforms": [
    ],
    "allowUnsafeCode": false,
    "overrideReferences": false,
    "precompiledReferences": [],
    "autoReferenced": true,
    "defineConstraints": [],
    "versionDefines": [],
    "noEngineReferences": false
}