{
    "name": "Daily.GoogleSheet2Unity.Editor",
    "rootNamespace": "",
    "references": [
        "GUID:ba7510193b3433842b11c8855fc784b4"
    ],
    "includePlatforms": [
        "Editor"
    ],
    "excludePlatforms": [],
    "allowUnsafeCode": false,
    "overrideReferences": false,
    "precompiledReferences": [],
    "autoReferenced": true,
    "defineConstraints": [],
    "versionDefines": [],
    "noEngineReferences": false
}